,cleaned_comment,cleaned_parent_comment,0,label,pred_label
396486,maybe i should have added,he is using offseason as an adjective . like a synonym for bad .,0.9869458,1,1
382018,but you cannot be sexist against men !,wow canada i did not know you were such a sexist .,0.9965767,1,1
331210,should have bought a xbox one,should have waited for the 580,0.7481546,1,1
262749,"im not against black people , i just wish they wouldnt come in my restaurant",i do not agree with how black people are . that is not a racist statement  ?,0.8566749,1,1
420384,it is even crazier that the warriors won a championship without going through the clippers !,"it is crazy to think we never got a kobe vs . lebron championship , considering the fact that since 2007 every finals matchup has featured either lebron or kobe .",0.84673125,1,1
193201,forgot da,yes because the jumping awp no scope is just so accurate and op,0.9750522,1,1
21807,"we all know frogger is a white supremacist nazi , they need to be banned .",hey rall ! here is hillary clinton speaking in support of video game censorship .,0.9443442,1,1
597740,and then all of our arguments will be proved wrong then !,i'm sure there will probably be a 4k sidescroller with graphics similar to that of a flash game released on the ps4 in a few years time .,0.8441902,1,1
433428,cause khan is fighting a 175 pounder on fight night when he has not faught north of 147 duh it is a complete duck of kell,i'm not sure how you can justify calling khan a bitch when he is taken one of the toughest fights he could get .,0.7792901,1,1
508992,"bet none of those images was a nice guy , *jeez* woman are all the same",til a 2006 study at mcgill university found that women watching sexual imagery reach physical arousal as quickly as men and are sexually aroused by a greater range of images than men,0.8774918,1,1
150696,he was giving those children solid work skills and the ability to get a job when they get out of school .,one of those malheur assholes who got off scott free yesterday ran a farm like this . adopted kids to use as free farm labor and got a tax write off for doing it .,0.81811166,1,1
40183,"nah , we are just tough on crime so we can keep our citizens safe .","tbf , it is fucking insane to most americans .",0.99121547,1,1
710199,"haha i'm from rural texas , of course i'm afraid of how all you godless heathens drive there !","sounds like something someone from ft . worth would say . ""oh you are going to dallas ? bless your heart , what a hell that place is for driving""",0.8990921,1,1
467190,"because if there is anything an analyst panel with lalas needs , its more lafavoritism .",bruce arena will serve as studio analyst for fox sports 1's coverage of the western conference semifinals,0.77691555,1,1
701514,hey thanks for supplying reasons to go with those statements !,the notion that europe is about to crumble under the pressure of refugees is fucking ridiculous and for you to even compare it to a sinking ship is beyond pathethic .,0.86861044,1,1
814335,sorry i betrayed,wait what wtf,0.7426009,1,1
624099,"nope , aliens !","a theory i'd not seen , on how the pyramids were built so perfectly .",0.9311968,1,1
809949,"do not worry guys , i'm sure hyperinflation is just around the corner , got to protect those german savers , everybody else are just some lazy bums that should get a job .",paralysed ecb leaves europe at the mercy of deflation shock from china,0.8884208,1,1
809778,*but weed is not a drug because it is natural*,"health affects aside , it is time to be a mom . no more drugs for a while .",0.9569758,1,1
538229,"no , no , no , the park would be a wonderfully activated space where seattlites of all types would come together for multicultural music festivals and labor organizing... ","use the land to build as much lowincomeaffordable housing as you can get away with . or just build a park and watch it fill with homeless people anyway . you know , whichever .",0.8549673,1,1
266237,i forgot the,i assure you that samsung is not shaking in their boots due to this post or the associated comments,0.99971753,1,1
266656,"yeah , the world is worse off with everyday people able to access the entirety of human knowledge on a whim",personal computers are a problem created by apple . people were pretty ok with institutionalised computing until they came along and ruined it all .,0.98565936,1,1
611632,"guys , guys , guys , he is an eblooboopbile , not a child molester .","""today that guy fucked up by letting his teenage daughter dress like a hooker... """,0.9048113,1,1
912823,that is ok taking people out of context to make them sound worse is totally not a scorn worthy move srs pulls all the time .,"let me just reach into my bag of fucks here , aw shucks , i'm all out of fucks .",0.79465103,1,1
727441,maybe the militants misread the koran that they memorized ?,boko haram gunmen kidnap 40 boys and young men in a raid in northeast nigeria,0.7315921,1,1
319325,you must have dropped this,this is proof . take guns and all weapons other weapons away and you end up with a completely safe area . no violence at all .,0.99867886,1,1
846635,because america is normal .,not in america,0.7622678,1,1
300911,"but you cant play on the couch , amirite ?",pc has 4k 60fps .,0.7986638,1,1
124842,the government has got to regulate these companies .,harvard study reveals drug prices are high in u .s . because government grants monopoly to big pharma,0.83622426,1,1
924982,"yep , anarchy is what we need !",the us government .,0.94305766,1,1
9985,you forgot the,because there is no such thing as left or rite . they are in the same pocket of the same wealthy people keeping you distracted with sstupid shit while they rob you blind and keep you in poverty .,0.99996364,1,1
195382,"hey now , to be fair , i bet he was a catch back in the twentieth century .",i'm 19 . why do people think this is ok ?,0.72048354,1,1
443461,but he had his right of way blinker on !,toyota highlander attempts to merge into me midintersection,0.98184985,1,1
226518,forgot the,you cannot actually believe cleveland can beat this team 4 out of the next 5 .,0.99998796,1,1
879069,why this is absolute oppression !,muslim father ordered to leave canada after choking and threatening his daughter  : jihad watch,0.9314088,1,1
80226,"no way , that is racist because reasons",woah it is almost like big business loves immigration because it allows them to lower wages and gain a cheaper work force . one nation's 0 net immigration policy is the best of any party .,0.9836623,1,1
719873,"yeah , because eugenics is not only morally alright , but has ever shown any sign of working at all !",the answer is to pay the least effective individuals a generous stipend to be sterilized .,0.9850847,1,1
618650,"military , that is never a waste and we are never spending enough",genuinely curious  what *should* the government spend money on that you would not consider a waste ?,0.8899601,1,1
21348,oh okay then it is totally fine !,"yeah but you do it in a condom so it is just a little bit more civil , i guess hahaha",0.8781874,1,1
532677,because it is well known that the seals are incompetent and poorly trained .,good thing they were not navy seals . crashing a helicopter into the train would only make it worse .,0.91239303,1,1
893762,how dare you offend me faggot,most people are very bigoted . you cannot post your opinion without somebody getting really butthurt .,0.8774531,1,1
201353,"but they did not bro , they were waiting for trump to give them the thumbs up that it would be ok first",if the russians can hack the dnc just think what they did to her state department emails .,0.72609276,1,1
266355,because it is used by muslim people and muslim people are scary,i do not understand the point of banning swimwear .,0.9817244,1,1
988022,obviously the chinese would cut it off .,why would not he have his flat top ?,0.76601136,1,1
531219,i never thought israeli arabs  palestinians would ever sink this low !,"israeli arab teachers arrested for joining isis , attempted to recruit children",0.90799046,1,1
818150,"good thing there is laws that prevent them selling the uranium to questionable parties , since we know these banks put legality before profit .","goldman amp; deutsche bank to get out of the yellowcake uranium business , have amassed a 5000 ton stockpile in ""secure warehouses""",0.92243713,1,1
961355,well that was a realible source,american citizen pressured to become fbi informant by placement on nofly list,0.92787224,1,1
529753,"yeah , clearing it with g3 or mihawk is so much harder than clearing it with rayleigh",legend . grats anyway .,0.7998995,1,1
352633,definitely thought it was the power of love,"who actually defeated kuradeel in s1e10 ? kirito , singlehandedly .",0.729739,1,1
835544,nobody should get accountable for false claims,"wow , since when do companies get held accountable for false advertising ? did i magically get transported to 30 years ago ?",0.78673613,1,1
587940,because if it am not american it is shit,i just do not get why some ppl cannot stand his british accent,0.8810336,1,1
458088,because suicide bombings in populated areas are so much better,"thank god we are unarmed in western europe , one big happy gun free zone . hummus anyone ?",0.9606748,1,1
301097,exogenous factors are the best factors !,did not you know that the healthiest relationships are based on manipulative games and arbitrary timelines ?,0.8497778,1,1
457528,"oh no , i did not see that !",anyone else see the blood on the ground . .,0.8376167,1,1
203462,he is a streamer so the entertainment he provides is more important than all the games he ruins,why is he smurfing ?,0.7815971,1,1
519715,what a bunch of scrubs,man rafas football is so boring it is been 3 minutes since the last goal .,0.70424545,1,1
62673,what a stupid assumption i mean who plays their great young players anyway .,the talk of playoffs actually came from non nuggets fans who assumed that jokic and the youth movement would get significant minutes .,0.7513118,1,1
836684,"because a super raw , mediocre offensive rookie is really gonna push them over the edge this year",that coupled in with the first overall pick made them favorites i think .,0.88518727,1,1
503122,repeat after me females have vaginas women can have a penis females have vaginas women can have a penis,"it looks like someone missed biology class . hell , they posted on tumblr . they probably never even went to school at all .",0.80845153,1,1
458301,*yes the free 65 character should be the top dps class*,i think elin reapers should stay on top but you should totally get a small buff or something  :),0.7077597,1,1
569790,"op needs to upgrade his rig , 59 fps is unplayable","brawl on dolphin at 1080p ultrawide with 4x msaa and flawless 21 :9 support . farewell , wii , i'm never touching you again .",0.7385889,1,1
588208,"well the earth is only 6 ,000 years old , so... ...  .","mysterious russian statue is 11 ,000 years old  twice as old as the pyramids",0.76181066,1,1
1000373,forgot the,"i **think** (and this is really just conjecture) that kingsway8605 (honestly , i'm not even sure) maybe was being (who really knows ?) *sarcastic* .",0.99998116,1,1
613658,wow it took you 3 years to get a tier 1...  jeez you suck at grinding,after three loooong years...  . finally .,0.81655586,1,1
686277,but they said they were gonna remove that soon,featured on reddit,0.7670038,1,1
202163,sexist,oh boy oh boy i love me ice crab,0.94181544,1,1
877003,i probably should of added the,"simulator battles :no mouse aim , realistic flight models (on the whole) , cockpit view only and no markers on enemiesfriendlies (friendlies have a marker within 0 .7km though) . challenging but fun .",0.91612893,1,1
621328,if americans do not like fulltime wages paying so low they need to be subsidized then they should work harder,"if americans do not like the word ""socialism"" then they should not tolerate fulltime wages being so low they need to be subsidized .",0.8954653,1,1
677620,"wow , mobile must be an absolute war zone with gun fights running rampant .",took 15 minutes and 20 (per year) in mobile county (alabama) .,0.7302746,1,1
372673,totally since everyone here has atamp;t,yall should have gotten the s6 active for good battery as i end my day with 50,0.80193865,1,1
493102,yeah he only has intangibles and we should trade him,also toews is overrated,0.9757908,1,1
709341,yes because we all know that eye witnesses are always right .,aka the 'i'll pretend i'm an idiot when convenient' approach . fyi eyewitness accounts are proof .,0.9942063,1,1
360628,"lol come on boys , no , a rubik's cube was actually just solved by a crustacean before your very eyes","that is fake , right ? because if not , that is nuts .",0.84584403,1,1
377970,"yea it is fucking horrible , they have added so much awesome shit is like you are not even playing minecraft anymore... ",for real . minecraft is fucking appalling these days .,0.78330886,1,1
187495,"no idiot , you are on reddit , you therefore must be american... ",given i'm not american and do not live in a country with a fucked up legal system i do not think it is going to save my life one day,0.8748643,1,1
829038,totally reasonable .,that seems reasonable .,0.87365544,1,1
493947,because communism will pull us out of the ashes and lead us to victory alongside socialism,"capitalism will inevitably lead to its own downfall , or destroy us in the process . i'm hoping it is the former , without the dystopia please .",0.8489798,1,1
533395,"yeah , totally . . fuck people who offer you free weed !",fucking douche bags,0.71872956,1,1
675554,yes because that is the only place that happens .,gonna guess sc from the confederate flag on the highway .,0.90350837,1,1
235053,would require engine work,"for the love of all that is good and holy valve , please make this small change to steam... ",0.7530939,1,1
192186,keeping toronto safe !,police raids continue against toronto dispensaries,0.93690395,1,1
557089,its the entirely disrespectful way he said it !,this got downvotes ? . .,0.925401,1,1
649664,it is not like black people in this country have anything to be as riled up about that is anywhere near as important as those football games that white people like to riot over .,i'm a white business owner in a predominantly black neighborhood .,0.95131683,1,1
390851,because that works out so well over the internet .,yeah its called being sarcastic,0.94295704,1,1
801206,"but then you are stealing from the lightbulb manufacturers , if everyone kept their lights off then they would go out of business .",it is not like i'm going to buy anything i see anyways . it is like being blind and always keeping the lights off in your house .,0.786427,1,1
66896,"yeah you are right , they are married so we know for a fact they do not like each other .","what i'm saying is , how would you really know ? ?",0.9251504,1,1
1008151,"no way man , this is reddit winning !",twist : this was all a huge publicity stunt,0.9130078,1,1
889600,yeah i guess all the pros losing ranked games are just bad right ?,"if you lose 5 games in a row , you are the only common denominator .",0.97325414,1,1
455305,but he was always such a nice guy,when old friends go bad .,0.964733,1,1
569847,but i thought gamers were all dumb spotty freaks,you recognize a coleridge quote in a gaming subreddit...  dafuq is happening,0.9363982,1,1
316286,"oh no , mah buzzwords !",what is more annoying are fanboys who downvote anything even remotely close to criticism,0.901154,1,1
829696,they just want to embrace **true** republican libertarian values and not succumb to a bunch of **rino**s,"but they are totally not republicans . they are above both parties , you guys .",0.8144576,1,1
606444,"dogs are man's best friend , and therefore all women who own dogs are gender traitors .","no such thing as allergies or taste , just sexism",0.90823525,1,1
588427,"probably nothing , but hey , at least he responded to you and managed to avoid your questions !",what does this book have to do with homosexuality ?,0.72810984,1,1
668095,no one saw that coming,robert mueller : 'we found no evidence that anyone at the nfl had or saw the inelevator video before it was publicly shown .',0.79879,1,1
141524,because that behavior justifies killing someone,douchebags all . someone should run them the fuck over .,0.9428903,1,1
742305,"bbut kung lao in mkx was a huge step forward for video games , gay characters that were not offensive or stereotypes literally did not exist until a couple months ago .",'fallout' had gay marriage back in 1998  forbes,0.7762843,1,1
913554,"haha because driving at 200 mph does not take skill  , right guys  ?",as soon as i saw the new nascar game on steam,0.9219801,1,1
745318,but that is shoehorning in female characters,"if only they knew that you do not need to be female to write from a female perspective , you just give them a girl's name , change some pronouns around , and make sure they do not mention their dicks .",0.95433986,1,1
617869,now just think of how many jobs that will create,"news headline : ***hotels and motels nationwide add the word ""the"" to the beginning of their names***",0.7931416,1,1
232938,"nah , his position is more justified because he uses unmanned aircraft to kill people .",umm...  obama sent troops too . let us not be silly .,0.87347066,1,1
204630,i like how you used the invisible font for the,"great contribution , ty",0.8175095,1,1
676003,forgot the,"if you have to explain it , it is not smooth .",0.9999827,1,1
172954,"yeah , downvotes are what matter the most","careful , talking about rape culture in this sub is an easy way to attract downvotes if you are not really specific about which demographic you are talking about .",0.88092905,1,1
480893,yeah you are probably right; console players are automatically much more tame and levelheaded,"i feel like all the majority of salty players are on pc , i get very few players on ps4 talking shit",0.90768325,1,1
718914,yes having minimum standards and asking if there was a game that has reached those standards is so childish,"including ""nothing"" as a choice was pretty childish of massively , if you ask me . out of all the games , eso was overwhelmingly chosen as the best .",0.75339407,1,1
382032,maybe the beans will be a future perk !,and also if they were drinking a perk bottle rather than eating beans,0.7662966,1,1
787119,should have added a,you are still 200m short .,0.9984041,1,1
553552,because they are rolling in profits as it is .,richard branson calls for carbon tax on airlines,0.7258092,1,1
546273,"yea , we have so many illegal sikhs here in the us .",maybe if they carried proof of their legal residence and ethnicity around it would not be a problem . and please do not pull the race card .,0.8771307,1,1
744672,very quality post,hype ! the new pic has me pumped up .,0.71153504,1,1
522054,"yes , and let us get rid of money and use chickens to barter for goods .",time to shut it down anyway and for good,0.77958214,1,1
891372,but dood the frs turns corners so well,"2230 is pathetic for a 2 .0l 4cyl in a car that light . hell the mustang ecoboost gets better highway mileage and has 110 more hp and like 170 more torque , and it is heavier... ",0.82966614,1,1
872905,since you are getting only 30 fps i recommend you to use the cinematic function for a better experience,"as a blatant graphics prostitute , i just found my new favorite thing in the entire world .",0.7710718,1,1
459757,but free markets !,obama bans u .s . imports of goods produced by slavery and child labor,0.9940369,1,1
230346,well i'm sure this comment thread will not be an inhospitable shit show,attorney general loretta lynch says the hillary clinton email investigation is being closed without any criminal charges .,0.78880215,1,1
746175,shh...  male circumcision isnt barbaric because we practice it .,zero tolerance for barbaric cultural practices act can we include circumcision in that ?,0.9120578,1,1
473097,"she told him 10 ,000 times guys so we cannot even blame her for complaining",tar28 episode 8  live discussion thread episode 8  live discussion thread . spoilers up to and including this episode can be expected in this thread .,0.891932,1,1
438742,at least they do not have autism,children in an iron lung before the advent of the polio vaccination (1937),0.85671467,1,1
421481,"well c9 has no strats , so vp cannot antistrat them and c9 will win !","""i do not care what they say , vp antistrats the shit out of us""  sgares after quitting c9",0.92568475,1,1
845842,but but...  false rape accusations and consensualsexbecomingrapethedayafter are so common because there is no negative consequences for women while men get lynched !,study : many young girls view sexual violence as 'normal stuff',0.9929825,1,1
557038,because according to the afl wearing white shorts means 100 clarity between both teams uniforms,freo actually chose to wear their white strip in that gf because they were required to where the white shorts . not really sure why they were not allowed their purple shorts though .,0.88341653,1,1
316894,"yeah , our nation is still reeling from all those cops that trayvon martin and jordan davis tried to kill .","fox's kevin jackson : mothers of the movement ""raise thugs who try to kill cops""",0.8322513,1,1
770128,"well clearly you are not a ""real lesbian"" because you did not get the memo that all homosexual people are also violent rapists .",not as great as you think . my softball coaches in high school tried to make me dress out by myself because some girls felt uncomfortable undressing in front of me .,0.945976,1,1
621403,he is got brownblack skin so he must be a muslim,obama is a christian you fucking imbecile !,0.91655487,1,1
204361,stealing are manufacturing jobs  :ddddd and communist dictatorship  :d,why does reddit hate the chinese so much ?,0.79588205,1,1
328901,"of course they are not sixteenthitalian , they are fullblooded italians  just like anyone from naples","no , that is a specialty reserved for americans who pretend that their greatgreatgrandfather being born in italy makes them 'sixteenthitalian' .",0.89870995,1,1
329372,"oh no , health nuts are such a yuuuuuuuuuuuuge problem in a 67 overweight country",one of the most foulest odious concoctions that is being pushed by 'health nuts' . absolutely vile .,0.88210315,1,1
529464,"because being straight is a choice , its not like you are born straight... ... ...  . . oh wait sorry i forgot to replace the word straight with homosexual .",i really do not get it . why do they want to slap me for being straight and white ? like i'm guilty for sexism and intolerance because i'm straight and white . am i missing something ?,0.82363766,1,1
398643,"yeah , believe the true bhop master",yup . he jumps the ramp,0.740135,1,1
32410,"and if you do not make 200 , just work longer hours !","so if a house is 1 ,200 ,000 , then i should make 200hr . sounds about right .",0.7920928,1,1
353698,"well , you know , that would not be if it were not for all us liberals trashing hillary at every opportunity","how dare you ! (even though polls say it is a high percentage of americans , right ?)",0.9079571,1,1
416927,"they are savages , wifi does not exist there",what about alaska and hawaii ?,0.88276607,1,1
887484,but your just jealous !,"i blame the seahawks for basically taking a ""fuck it , let us hold the wr on every play , what are they gonna do , throw a flag every down ?"" approach .",0.922869,1,1
376133,fuel shortage in end war scenario simulates realism !,you now have to buy fuel with golden eagles ))),0.7423571,1,1
587053,rising business costs will fix this .,you do know that the 5 year success rate of any business sits around 20 right ? not every business that goes under does so because they over payed their workers .,0.7203253,1,1
337782,"yes , surely you had the only antiestablishment professor in all of america",macroeconomics indiana university ?,0.9523079,1,1
590687,i forgot my,"no , it is because it is black .",0.999231,1,1
568461,"yeah man , you guys live in like , huts and stuff",culturally backwards ?,0.83755594,1,1
643859,"right , because only black people left .",pointing out black people are leaving is not racist you sjw cuck,0.96897686,1,1
584200,"yes , lets just give korea and china all 16 seeds and be done with it... ","if no western team get out in worlds , there should only be 2 seeds at most . for eu and na . if lms teams get out of group , they should get 3 seeds . this is for ""competitive integrity""",0.7433221,1,1
948734,"but it is so wonderfully ""diverse""","where its 80 degrees , 80 humidity , and you have 80 stab wounds . it sucks",0.91774523,1,1
782955,but if we do that then how will we justify paying all this money to armsmilitary equipment manufacturers ?,we should stop giving weapons to foreign military groups it always seems to end up with our weapons used against us .,0.7307649,1,1
205429,"oh joy , i cannot wait for one of these tech companies develop an ai that will sift through all that delicious information for the nsa",tech ceos declare this the era of artificial intelligence,0.8427909,1,1
312670,because only hitler had the idea of an united europe .,"ah , yes , the whole ""europe  litterally hitler"" . did not took long .",0.8721284,1,1
568127,"yeah , must be real stable with greece leaving the euro , that will really help drive investment","you do know that the dollar is less stable than the euro , right ?",0.8985807,1,1
918135,"yep i can 100 assure you it is going to be that simple , because everything is just that easy when it comes to progamming","they would just add a while or iffor statement . also , if they broke the replay system , they would still be stored on the server that they are on .",0.87365645,1,1
49401,"yea , i am also quite confident that gun ownership will make a huge difference in the quality of life you will have in the next years . .","to be fair , the man does support gun ownership . hillary would have tried to slash that one quick . i can at least build a bunker and arm it .",0.7046626,1,1
68044,but mansplaining do not real !,you are literally talking to a woman who is complaining about the fabric of her jeans .,0.93608075,1,1
615158,"yeah , art",there is a hell of a lot more to life then just science .,0.92571634,1,1
976733,it is to combat terrorism and keep us safe .,too many nations spy on their own citizens . this needs to change .,0.9161867,1,1
753404,that is why tennis is rising in popularity and everyone loves watching it,"do you know something called tennis and the ""open"" system  ?",0.74491376,1,1
215652,because you have no right to criticize consumerism if you are a consumer .,iphones are great at sending things . what is your point though ?,0.7132381,1,1
887668,great product of the arsenal youth set up,dan crowley free kick,0.72293425,1,1
1009907,i feel more protected already !,"new federal agency launches : consumer financial protection bureau , to protect citizens from predatory banking practices",0.8064381,1,1
102643,"yeah , but they are a head of a un human rights committee","i wish major corporations had sufficient morality to refuse to do business in countries that engage in severe human rights abuses , like saudi arabia .",0.9772266,1,1
983803,so only war would stop us parents from hurting their children ?,"yeah , we had to spank you to get you to stop doing it .  :)",0.9020471,1,1
737167,but clearly all atheists are just angry at god .,"actually there are not any atheists in that movie , as hercules is simply angry at god and not an unbeliever .",0.9895671,1,1
513841,"yeah , doncha know when you huff the chemicals in nail polish it alters your brain and makes you like men ?",mfw someone says i'm going to turn my toddler gay because i painted his fingernails (when he asked me to),0.7405952,1,1
400999,hell even the meat is nearly vegan !,"you should , it is by far the most vegan friendly fast food restaurant .",0.7041691,1,1
53877,please tell me you forgot the,fuck laurel tbh fam kc is overrated af hope this new bc can act,0.9960402,1,1
895087,michelle osama and her liberal agenda to make me eat better is pure marxism !,'murican lunch,0.774369,1,1
15844,forgot the,"i'm not rich . i make around 42 ,000 dollars a year . and even when i was a cashier making minimum wage i still had a drawer full of change and was not concerned about nickles and dimes .",0.9999826,1,1
551701,naw bro he is a white 2 guard he cannot possibly be athletic enough to check someone like harden at all,just saying...  jj redick is ridiculously underrated on defense . he has been a plus defender for years now and is very good 1 on 1 .,0.91184723,1,1
634922,"but that ""kiss me arse"" thing surely draws these days",the whole 'kiss my ass' thing has never been anything but cringey .,0.72228986,1,1
237748,yeah because this video was totally to showcase the plays from a katarina player  !,unreal kata mechanics like holy shit never seen anything like it so worth the frontpage,0.95820284,1,1
359176,you must have looked at the table upside down,fewest goals allowed in mls toospooky4me,0.7467689,1,1
669188,"nah man , obviously they should localize valhalla knights 3 gold instead .","this is great , hopefully xseed localizes this .",0.8328139,1,1
44434,cause murray is starting every game,why would he not ?,0.8615607,1,1
227429,if only her daughters were armed !,"texas mother , a vocal gun rights advocate , killed by police after fatally shooting her two daughters during 'family argument'",0.98863333,1,1
274554,birth control hormones have altered my partner's natural body chemistry so badly that she is no longer able to bear children !,is not that kind of the point ?,0.7403392,1,1
603614,"... bbbbut it is all about blockchain technology , not bitcoin !",and  banker altcoins price failure .,0.8466893,1,1
467714,"wait , you did not know he was back ?",i read the title as marc savard and got really confused .,0.82662463,1,1
673486,yea because that extra 5 minutes could be used for frey pies !,7 seasons is perfect . i'd cut out the whole grey worm romance arc .,0.92599976,1,1
135916,"no , that was russia",yea but did they rig life on this planet ?,0.7713053,1,1
604338,hes black so he must know everything about basketball,we made it tnt boy mike ross,0.9061435,1,1
651476,this is all rafter's fault,tomic arrested at a south beach party,0.8448059,1,1
857859,"no , clearly danny and ross hate each other , that is why they are never on steam train together as of a month ago !",it has even gone as far as people speculating that danny and ross are fighting and that jon was involved . which is dumb .,0.8286833,1,1
401337,i think you forgot the,"our ancestors were so adorable in their primitiveness . no way something like this would happen again in our lifetimes , and against a country we are not even at war with .",0.9994222,1,1
575203,yeah we all know how those millenial democrats really love the taxi unions and hate uber,"do not tell that to rpolitics , they kiss up to democrats and pretend like they are not corrupt .",0.98658425,1,1
550005,"yeah , who does not love getting his ears raped .",fan of esl and dreamhackfaceit sound i like the shoting sound that all weapon make especially at the esl one major were it all sound so intense  :) i am really interresed how the make this so epic,0.7467442,1,1
348910,"but i need to speak french in 2016 , not 1750 !",top 1750 words most used in french,0.75543034,1,1
213753,nah man we can totally just ignore our biology and basic primal needs with a little deep thought and prayer .,"to be fair the ridiculousness of ""abstinence only sex education"" deserves to be laughed at .",0.87180537,1,1
775411,"but by ridding the world of white people , they would actually be making a really efficient wish , by ridding the world of violence , hate , and racism all at once .","if you could get rid of one thing , what would it be ? violence ? hate ? racism ? terrible ecelebrities with huge egos ? nah , white people .",0.9332559,1,1
267992,"yes , because softcore porn of a children's animated movie makes people think positive about furries",it is literally the best thing to happen to the fandom since the lion king .,0.9524276,1,1
447569,well thank goodness that change had any effect at all .,which is why the color was changed one where that is heavily minimized,0.8383479,1,1
49821,you are singled handedly responsible for the downfall of the gay community how dare you,my obsession with straight guys is a bit weird,0.85325956,1,1
491727,here's proof nasa faked it all !,"have you ever camped on mars ? anzaborrego desert , ca",0.7329707,1,1
677056,but i thought bitcoin was anonymous,prosecutors trace 13 .4 million in bitcoins from the silk road to ulbricht's laptop  wired,0.8998308,1,1
133072,but the 4 damage nerf was harsh enough !,"at 4400 right now , over half the decks i see have royal gg and all of them are level 1213 despite the users only being level 1011 . it is so powerful when it is over leveled .",0.97619915,1,1
663413,well it worked for him .,"bono : the world's biggest number 2 , decides only capitalism can end poverty .",0.82720816,1,1
473829,tell the orange juice to stop pushing its agenda !,i like the description of a healthy diet on the back of this co op orange juice,0.78782815,1,1
247899,how original .,right ? that way ruby can be her righthand woman .,0.8248483,1,1
762948,"oh yeah , he is totally mainstream",frank ocean .,0.9571451,1,1
880635,at least they do not have the ceo that hates gay people anymore .,mozilla to integrate adobe's proprietary drm module into firefox .,0.7615181,1,1
555031,yeah because there is not careless drivers in best yurop right guys,"jesus , usa insurance almost makes up for the apparent lack of careless drivers !",0.9916756,1,1
318889,"wow , that is an amazing accomplishment !",nope . sam brownback is . even less popular than the guy who poisoned an entire city .,0.926964,1,1
896721,bullshit dude we all know nobody ever went to the moon,but there is already nazis on the moon stealing our helium 3,0.7129393,1,1
934621,"yeah when i think of people who are not respected in the nhl , i think of henrik sedin","soft as in , lets people walk all over him because nobody respects him . nobody .",0.767043,1,1
713218,"no bombs here , these tunnels are strictly kfc only .","hezbollah shows off its tunnels , claims it is prepared for war with israel",0.7859706,1,1
265672,yep and casting white people as asians are fine,"they ""cast white people for everything"" because they make up 75 of the us population . this is not racism nor hard to understand . no i'm not white .",0.9105342,1,1
119945,"but we have to listen to their concerns and points , no matter how nonsensical they happen to be .",ill informed voters with no knowledge as to how things actually work vote against their own interest based on fanciful lies . more at 11 .,0.90577984,1,1
429353,"yeah , op has not cooked away all of the juicyness",when are you gonna finish cooking it . too damn raw man,0.90164095,1,1
296673,"yeah , we are closed in caves like at the end of matrix 3 !",european passport is useless . europe has no future .,0.7458057,1,1
783870,but they recruit so many from college !,"intelligence is not a prerequisite of being in porn , apparently .",0.9917298,1,1
445180,i should add,"it is a big with the ai , so no .",0.9461506,1,1
959073,"the difference is that she is a strong , independent woman whose been through a traumatic event , and you are a lowlife scumbag who sells hardcore drugs and probably worships satan !","so she only gets a 500 bond for lying about being pregnant , kidnapped , and raped and causing a huge police search and i got a 3000 bond for having barely any weed on me . what",0.9568778,1,1
221459,he must hate the freedom and foreign policy of germany,'many hurt by axeman' on german train,0.9400338,1,1
948356,dont perpetuate rape culture,so checking out a girl's ass is a sexual harassment ? this is bullshit,0.86766815,1,1
611130,because people getting shot by their own guns totally never happens .,an officer was shot . . i find it hard to believe that he shot himself... ,0.9730757,1,1
658751,butbutbut the nsw lib win was an endorsement of the federal govt !,newspoll shows coalition support dips to 14year low in west australian stronghold; bill shorten ranked as better pm in all states,0.9452169,1,1
140566,how progressive,i know but two women on one ticket is risky . also they did not want to risk the seat being taken over by a republican .,0.89979947,1,1
457208,"that is not racist though , because only white people can be racist !","i hated the obama discussion which was ""i do not care i voted for him because i'm black""",0.99492776,1,1
667967,at least it is not overpopulated ;),til the population of ireland still has not recovered from the famine of 18451852 . it was at 8 million before the famine and is at 4 .5 million today .,0.7694354,1,1
694498,but the gays are getting married so the world is turning to shit,"""now we have a world where people are confused if you do not believe me go and watch the news"" actually , people are much less confused today than they have ever been in history... ",0.93678826,1,1
561088,but that is 50 more keys i have to press !,"or ctrlshiftc , ctrlshiftv .",0.87970376,1,1
690010,if you were smart you had buy all the decorations so you could sell them when your storages are not full,just two days for those collectors to fill up,0.73957455,1,1
447888,"yea , no such thing as a good landlord .",imo even drug dealers are better morally than people who live off rent .,0.888359,1,1
1009737,that just means his price is high !,that explains why he has not been bought in the decades he is been in politics... ,0.88879746,1,1
692800,i know we need more engineers in the world .,that is fine . but you are in the minority for this subreddit . all good .,0.71201885,1,1
806301,then you forgot the,way to be completely unable to understand hyperbole .,0.99982846,1,1
942118,"yeah , but in his defense , the guy was fat .","i dunno , but in this clip he is making fun of some fat guy... ",0.84608537,1,1
456872,but tahm was more of a problem than udyr ! !,"do not forget udyr , he is so tanky while still eating your carries like nothing .",0.8519456,1,1
668670,your helicopter needs a better camera,sports fields of nova scotia universities,0.76449704,1,1
113201,"what , 50k youtube followers do not count as an unruly mob ?",ss is only going to come visit you if your threat is perceived as credible . this guy has no followers to carry out his idiocy...  . yet .,0.77529407,1,1
932601,"wow , who would have thought babies would look the same .","my son and i . same outfit , 24 years apart .",0.71247846,1,1
1002238,terrorist sympathizer .,is not refusing to debate the level of defense spending great ?,0.7265829,1,1
596232,you forgot this ... ... ,trump made that idea ? ? ? ? i am impressed  :),0.7642159,1,1
80193,"and yet , we need these people to run everything in our lives , including healthcare , especially healthcare .",n .j . took 1 .4b from your phone bill for new 911 system but never delivered,0.87977684,1,1
167275,yeah absolutely if there is one person whose facial expressions are not talked about enough it is becky,becky's faces in the ring are underrated,0.9127108,1,1
619132,"wow , that has never happened to anyone before !",i am just speechless .,0.9094647,1,1
54257,nah bruh everyone on this sub needs to be told what to like and buy,you should buy them if you like them . . or you should not buy them if you do not like them .,0.8583298,1,1
125342,well if lebrun said it then it must be true .,"according to pierre lebrun , russia holds headtohead tiebreaker over na kids due to the roundrobin win vs them . hence , north america need a finland win vs . russia .",0.8264179,1,1
379839,but... the prime2 directive forbids sharing technology with worlds that have not developed warp 10 technology !,"and it is not like starfleet cannot design new ships . get the tech to earth , starfleet builds a proper ship that can go warp 10 and goes and picks voyager up .",0.9409727,1,1
8385,so that is what that upcoming ape movie is about... ,whether or not humans can mate with other primates .,0.7394064,1,1
384217,"i mean , losing weight should be as easy as gaining weight , right ?",but that is *hard* !,0.8187767,1,1
976538,"yeah it is not a broad political group in lebanon or anything , just random extremists... ",why is this hezbollah source always on the front page ? hezbollah is a terrorist group that has killed people all over the world and is killing in syria right now .,0.89405733,1,1
107826,"fleas are like black man , they can jump and you do not want them in your house .","lice are like white man ,they cannot jump",0.7568314,1,1
404137,because what other form of government will work ?,why are you communist if history has proven it is a failed system ? title sums it up,0.75629795,1,1
809254,punishing those filthy kser supports,"valve , the fantasy points system is a bit broken; how are supports supposed to do any better than that ?",0.7815464,1,1
753971,but retro !,"so irritating . why cannot indie devs do their own thing ? no , you are not creative for doing ""old school graphics"" .",0.9835662,1,1
648948,he should have complied with the officer's orders .,even in such a clear case a jury does not agree . so one bootlicker can rob justice away from this man .,0.7809116,1,1
186590,well if you are a man of integrity,when yo dead but you forgot to clear yo browsing history...  lol but seriously this gif is awesome,0.7859881,1,1
26883,"well of course he needs a riot shield , otherwise he might get his arm broken",the isle of wight legit had that as a news story the other year . a swan stopped traffic and a policeman with a riotshield had to shoo it away .,0.7479071,1,1
283560,but they are an electionwinning machine !,that feeling when you win an election but the elation feels marginal  katharine murphy  australia news,0.9429492,1,1
587328,"it is all good , as long as he is not a non violent drug offender .",five ! five ! five to fifteen years in prisonnnnnnn,0.84292597,1,1
206931,"they are wearing hoodies , their obviously black","black looking ? they have no skin...  am i missing something here ? poor taste yes , but holy race bait material",0.8768511,1,1
630944,because there is nothing republicans hate more than religion in politics .,"""gop rejects left wing attempts to inject religion into politics , putting principles above blindly following religious leader""",0.95565283,1,1
711176,good thing you have a nice liquid safety feature right in front of the drive to absorb the impact !,and stopping from 10mph was really pushing the limits of... whatever you ultimately run into .,0.8720351,1,1
369717,more proof that all ubisoft games are the same base game,is this r6 siege or assassins creed ?,0.74889773,1,1
547518,but ...  the game would be perfectly balanced and the toxicity gone  !,this is why riot does not listen to subreddit .,0.9494372,1,1
288461,"yeah , this is also why smash bros never took off",honestly tf2 comp is so lax because nobody can take beating frenchmen to death with ham seriously .,0.97087586,1,1
741455,vote for clinton if you wanna stop them !,"28 fast track democrats who voted against workers , for corporations , including dnc chair : primaries !",0.7545337,1,1
777971,you forgot the,"no , because according to my degree in sociology , hate crimes are only something that the powerful can do to the oppressed , therefore , only white people can commit hate crimes .",0.99997723,1,1
783758,stop imposing gender ideas on these proud cables,male and female versions of connectors,0.89271575,1,1
290049,nah do not you know the us is a 3rd world warzone shithole ?,its not like people are unloading uzi's on american police officers daily either . its for that rare occasion where it can save your life or another's .,0.8229041,1,1
417234,he forgot the,"you have no idea what he is talking about yet you know , nice... ",0.99994504,1,1
92317,"great strategy , that should go over well","with nothing left to lose , donald trump lashes out at michelle obama",0.9200988,1,1
447452,"that must be why sports teams do not have secret trainings during important events , right ?",keeping it secret is never an argument . never .,0.94148535,1,1
814926,"yeah , because our eye cannot see more than that anyway !","it is probably only going to be 30 fps . if it was 60 , they will be dying to announce it . maybe even 24 fps for an even more cinematic look .",0.977234,1,1
40892,that is only beacsue there is not a kanye flair,coincides with a resurgence of chelsea flairs . probably just a coincidence .,0.73389286,1,1
652172,but cultural appropriation is wrong,"fun fact , the japanese got curry from the british . indian curry has only recently (90's) gained much traction there . english speakers appropriate foods as well as language !",0.96326184,1,1
938307,clearly it is gameboy advance style .,"stop repeating this ignorant ""gameboy color"" bullshit .",0.822461,1,1
511242,"no kidding , they should pay the majority of taxes still but we should probably make them pay for healthcare as well should not we ?",how much tax revenue did these men pay ?,0.8417576,1,1
669093,you mean get off the internet and actually do something... blasphemy !,to everyone opposed to bill c51  stop complaining about it on reddit and callemail your mp  do it now,0.91408235,1,1
843872,"impossible , goats do not get human vaccines .",i've come to a conclusion that goats are really just dogs with autism .,0.7846735,1,1
484695,bacon is a risky buy considering our country (and our white women) are being invaded by dirty muslim terrorists,"i will invest in the only safe investments : bacon , lego and bitcoin . in that order",0.91158295,1,1
147629,do not be obtuse a wall is racist .,"if there is already a taxfunded , busted , crappyass fence , wtf is the big deal about a wall ? !",0.7029596,1,1
372204,"nah man was just joking you see that camera over there , was just a small prank",what if your brother cut off your arm and raped your sister ? also sending for bounty hunters to chase you every night ? dude .,0.82177424,1,1
215740,"even if we could , that is sexist !",she is like an anthropomorphic representation of all the infuriating and disgusting realpolitiking we have come to associate with politicians . and we do not even get to call her a liar .,0.9749237,1,1
807458,you smug foodie !,"itt : bunch of fat , poor people who routinely gorge themselves on trash laugh at people with the money and means to eat better than they do . even if the joke is on them , the joke is still on you .",0.83531225,1,1
733182,clearly everyone who disagrees with you is biased .,"and the downvotes on this , prove that ps2 redditers do not have a balanced view . i appreciate it . seriously .",0.8152334,1,1
779522,too bad he is also a dirty neonazi,arthur chu is a goddamned hero for putting up with all the bullshit he is had throughout all this .,0.8029271,1,1
536489,"well , and their future hof qb , but he is eli , so forget him right ?",if he had gordon this year its a different team . look how the giants scrounged several wins out of literally having their only good player at wr,0.78792053,1,1
153925,destabilizing middle easternafrican countries is a noble thing after all,"yeah , no one could possibly just not want a totally corrupt president . the wall is the primary reason .",0.8874947,1,1
448413,these jumping knives gotta be nerfed,tabsen knifes kennys,0.8147129,1,1
949791,"b did not do this , it was obviously the 9gaggers , because those 12 year olds have mad hax",b hacks patriot bible university (www .patriotuniversity .org),0.7839845,1,1
310985,but everyone else is better than me,rumble,0.7069647,1,1
10981,i'm sure that assange has not planned for anything like this .,julian assange's internet link has been intentionally severed by a state party,0.7278954,1,1
758647,he is boy and boyz can not be raped bcuz they can defend themselves,"you did not ask , she forced you . its rape call 911",0.95960295,1,1
907574,"well in his defense everything is voluntary , because you could just choose to kill your self...  . .",this guy's other interviews are even better . look up the michael steele interview where steele claims taxes are voluntary .,0.8260843,1,1
160068,well gee i never thought of it like that !,"so we should form a youth group now , right ?",0.7747762,1,1
976722,clearly she has unlucky genetics,what is this... i do not even... ,0.8496858,1,1
230588,surely this will be her undoing !,email record actually disproves that ! she sent emails from two separate devices in an alternating fashion for several months .,0.886663,1,1
60569,zamu and loke hacker confirmed,they do not have any hackers . at least not those who rank top 5 in lux rankings .,0.7383338,1,1
911256,hey why is your arena so empty .,literally driving me nuts,0.7926378,1,1
394447,"ah i forgot , all liberals do not have jobs , and all conservatives are bible and gun loving patriotic people",the last thing you should be doing is encouraging jobless liberal *redditors* to go out and vote .,0.98861444,1,1
747440,thank god those good men are over there killing afghani's cause otherwise they may take all our freedoms away,saw this on my way home .,0.8292484,1,1
45166,"just because you do not agree with his sexuality does not mean that he ""came out wrong""",oh of course ! that came out totally wrong lol .,0.84861296,1,1
825154,yeah that really helped .,there are 19 americans for every dutch person and the country is 4 times as small as the state of new york . (just to give you a point of reference),0.9021933,1,1
300558,forgot the,"i do not think it is reasonable to suggest that the clintons have any sway over what goes on in the fbi . they are powerful and well connected but that only goes so far . the doj possibly , the fbi no .",0.9999906,1,1
929414,guinness is amazing at handling accuracy and information .,"they have said they will issue a replacement , i'll find out tomorrow what i have to do with the other one",0.76244634,1,1
908795,"yeah , how dare she try to make you not live in a pigsty !","totally using this today . ""go clean your room adventurefuntime !"" ""go play in a microwave mom ! ! !""",0.84107715,1,1
893563,"yeah , cause shatner (all love to him) is an ""excelling craftsman"" .",there is a huuuge difference between celebrating excelling at your chosen craft and trying to turn people making fun of your photo into money .,0.8465366,1,1
515205,it is genetics that they cannot lose weight shitlord,and then they critique slim people for being active and not wanting to eat mcdonalds for every meal,0.80280566,1,1
111339,sex is not a number six is,no dunpass s*x already,0.7204267,1,1
347708,i am sure that naming this new card titan x will not be confusing at all in the marketplace .,nvidia announces new titan x,0.7898911,1,1
462096,tell us again how hillary supporters are totally doing the same thing .,wow...  i hope that this will motivate many of us to get out and vote,0.7281027,1,1
321279,but...  but you guys *are* my world .,reddit is nowhere near an accurate representation of the real world .,0.8543598,1,1
562878,"yes , that is exactly how you know you failed .",went to my sons house today . i failed as a parent .,0.7770481,1,1
780110,"clearly with the bomb watching that account , yes it should have been active !","how is disabling an account a ""huge mistake"" ? it should not have been active in the first place .",0.848748,1,1
703387,do not you all know it is because us average people are so lazy and do not want to work hard ?,top 0 .1's wealth about to overtake bottom 90 for first time since 1929,0.8615779,1,1
4327,na man they gotta buff that automatico so it can shred everything at medium distance,"mate , it is a ww1 submachine gun you have gotta burst slowly and even then , it is not that reliable . learn to flank more and escape fights , you will not always win with a certain gun .",0.7293725,1,1
467056,that is only because all pop and country is the same .,"haha , well did you expect country and pop elitism to be a thing ? what other remotely mainstream genres are there , other than rock , of which metal is a subset ?",0.9140315,1,1
233914,"damn it , if only there were people who said this would happen from the beginning !","german intelligence : evidence that isis ""hit squads"" have arrived in germany disguised as refugees",0.84894884,1,1
67429,yeah i forgot how injured those spurslakers teams were,i'm hearing a lot of excuses . literally every other mvp that bookends nash eventually got through to the finals at the very least . every team has injuries and issues .,0.93985075,1,1
810403,he forgot to put,well i see you cannot detect sarcasm .,0.9998648,1,1
530478,nobody should bash you for not having good taste,"guys i gotta be honest , i was not impressed anyone else feel slightly let down . please dont hate i'm just being honest .",0.8374471,1,1
676550,yes and the er coverage for people who do not have an er event,you mean like maternity coverage for people who cannot have kids ?,0.8362524,1,1
512858,"hey now , should not we all respect and honor the psycho retards that keep telling you about imaginary shit ?",buncha fucking psycho retards .,0.7706199,1,1
375869,yeah i'm sure playing on archon is much more fun with their huge movement up the ladder at that last major,"i would not feel that great if i were him , it is like saying we had to pick someone to replace our best players in a hurry , you are up .",0.90727925,1,1
769215,"but bruh , only tsm choke",damn that fnatic choke .,0.82415307,1,1
877835,"well duh , you start by building apartment sized robots first",but then they gotta build all them skyscraper sized robots first,0.7620799,1,1
903787,"yeah , war is the most badass thing you can be apart of... ",fuck you . you do not have the balls to do what this guy did for one day .,0.85629845,1,1
244452,"because shhhhh , the mods are in on it !","why are you deleting my ""valve is in bed with esea"" post ?",0.8759282,1,1
423798,losing 100m due to comcast and preteen ddosers is a natural part of the game and will strengthen the economy !,and they are planning on reverting death mechanics . ha !,0.93692917,1,1
879032,begging is so sexy,i swear on my family's life,0.7950041,1,1
1000483,"see , capitalism has failed !","so , the government stole your money and gave it to big banks who would have otherwise failed . obviously what is required here is more government power .",0.95891047,1,1
429328,"yeah definitely , those guys represent the millions of cod players .",call of duty community in a nuttshell .,0.94884545,1,1
831489,it mattered to throwaway182198291 so it should matter to us .,eh does it really matter ? she turned 21 and got drunk...  shocker .,0.76389474,1,1
650595,now all they need is to add sec flair !,"they have been verified , that is part of why they have the verified media flair .  :)",0.9184203,1,1
322210,dude they recorded a song with miley cyrus soooo lame,why ? what is wrong with them ?,0.72906864,1,1
595505,im sure he will be unplayable after that big nerf,my fav champ going to get nerfed... ,0.72724086,1,1
692862,but they are legal so they cannot be bad,"when weed goes legal , she will just go after another drug . pills are always good for ratings , especially since you cannot grow them... ",0.928591,1,1
11159,i hope you forgot the,that is because the pc greatly benifits from coding to the metal in dx11 . those inefficient console apis mean that a 400 dollar pc performs like a 3000 dollar console  :p,0.9990914,1,1
846347,treating women as human beings is a feminazi lie,"well you could always , i dunno... *treat them like they are human or something .*",0.76873326,1,1
248051,"idk who these people are , but this confirms the league is rigged",game 7 ref assignments (danny crawford mike callahan monty mccutchen),0.72017705,1,1
8189,"fuckin trudeau , ruining canadian culture",used to be . the new series of notes changed it up .,0.7835997,1,1
705436,stop oppressing my oppression !,why hate speech is not free speech,0.87394214,1,1
836726,totally shocked,ravens expect some form of suspension for ray rice,0.96516067,1,1
888671,"no , you party pooping bastard , everything is completely original",probably because it is mostly derivative of already existing works of fiction .,0.95429456,1,1
342521,because everyone on the internet always tells the truth !,tis true . dogs are creatures of habit... look through the other comments below about other dogs doing very similar things .,0.99433374,1,1
351472,he was obviously doing it for her own good .,video showing a religious police officer beating a woman who allegedly refused to cover her face,0.90890115,1,1
362664,but he said in the video that smash brothers was the greatest game ever made !,it is worth noting that final fantasy 7 is max's favorite game of all time .,0.8850458,1,1
737957,"yea , its not like the covers ever have relevant information for the story .",til people actually care about thr covers,0.7421546,1,1
999573,it is...  so...  . real...  .,dolph ziggler fails in action . falls in to self 619 position .,0.71247333,1,1
71575,this is surprising as alabama fans are known for being classy,two alabama students arrested for breaking into tiger stadium overnight and vandalizing field .,0.8475525,1,1
651502,"lakers won the championship in 2002 , you are obviously a bandwagoner",hopped on since 2002 . it is been a long ride  :),0.7232601,1,1
675569,huh what a weird coincidence,the percentage of americans saying that gay or lesbian relationships are morally unacceptable is 65 among those who attend church weekly . it drops to 15 among those who never attend church,0.8072567,1,1
279780,i think you did not see my,i do not think you read my post .,0.9350651,1,1
319852,what about all that equality feminists are fighting for !,the most shared true fact about our society,0.96713555,1,1
67885,that is why we import so many prcs to become singaporean right ?,"it is not even pap logic , singapore has limited space .",0.84013057,1,1
210835,"yea , because girl is so specific , and searching for it totally will not bring up thousands of other girls .","hashtags are to help people find the picture , not to describe it for the people already viewing it",0.947455,1,1
457153,"yeah , wales is ocean fish giant",england and wales are two different countries ;),0.8962531,1,1
348389,ahhh a clear voice of reason and humanity .,pease kill those kids .,0.7438965,1,1
530340,so obvious .,she obviously means the holidays we collectively call 'the holiday season' .,0.8489225,1,1
427773,no you do not understand keurig is bad,get a slightly larger cup and use two smaller shots while replacing the beans inside . it is not hard to make the coffee stronger .,0.7667367,1,1
717981,"yeah , that awful , hilarious game",this is going to be as bad as that awful deadpool game .,0.95313644,1,1
416692,you must be an mra for not choosing sides,"yeah that is what i've gathered from all these people saying he is an mra . trying to spread that shit is just as childish as fantano whining about sjw's and shit , people in here are so fucking immature",0.89383906,1,1
972990,did not you know religion causes racism ?,"okay , i know we have been willing to stretch the boundaries before , but this has literally nothing to do with atheism . no things .",0.85643905,1,1
800069,"but , but , but who is going to make all of the money then ?",america can nearly quadruple its renewable electricity by 2030 would cost the average household only about 18 cents per month,0.92224705,1,1
794944,you defend nazis !,"oh , now i defend assholes ? nice strawman .",0.7938575,1,1
138667,"so all a new religion has to do is claim its ""new holy book"" has 99 names of its god xyz and that will make it true .",how do i respond to this apologist argument ?,0.7897641,1,1
216056,shhh they do not care about that here,"when women talk about the threat of men , they are not making the claim that men are a leading cause of women's deaths . they are talking about rape , harassment , assault... ",0.77666587,1,1
455466,states rights !,"this gov signed an emergency manager law , citizens repealed it , he just passed it again took over their towns like a fascist then poisoned their kids...  lock his ass up , melt the fucking key .",0.8092495,1,1
407943,hooray for acceptable casual racism !,way's potato chips .,0.7448122,1,1
20738,because mcdonald's has changed so much in 20 years,"he is comparing it to burgers made in restaurants or at home which will almost always be better than fast food . but for fast food comparison , he has no merit .",0.84239185,1,1
5573,just shoot some unarmed black guy and get paid leave .,"a pregnant police officer asked for ""light duty"" since her vestbelt do not fit over her belly . she was told to take unpaid leave and she should have planned better and saved up more sick days .",0.7584471,1,1
188640,"yes , lol porn","i've read that even in porn , the top male pornstars make more than their female counterparts . lol",0.7627574,1,1
880676,because unpopular opinions are not allowed to be owned by anyone .,why the downvotes ?,0.85806024,1,1
62726,ya trump is gonna nuke the whole world world,just remember though he has his finger on the button for the nukes .,0.8074044,1,1
654718,but that was the missing link between 214 and sb,i'm always happy to see the bottom feeders getting hyped up over a rookie qb .,0.7756975,1,1
41793,also the parts of the bible we say count !,"sources ? we do not brook with sourcerors and others as what cavort with the lamestream media . we are honest , godfearing republicans ! we only trust in fake news and russian propaganda around here .",0.71144694,1,1
878439,"no , because the arabs are the victims so they need their ""safe space"" to not be traumatised by the evil zionazis",does the arab world issue visas to arab jews who fled arab countries during the late 40's and early 50's so they can pray their synagogues (if they have not all been destroyed by now) ? .,0.9623844,1,1
872051,"yeah , the delorean was not garbage at all... ","honestly , most cars made after 1975 . there are some exceptions like the delorean and buick grand national , but most cars produced from the mid 70's to 80's are complete garbage .",0.92382896,1,1
204586,no every one that beats me in lane is a scripter,scripters are really rare .,0.7127649,1,1
180060,i thought the league was just rigging games so my team loses... ,brian robison on twitter : i'm not saying that it is just us who is not getting the calls . this is a league wide deal . every time you turn on the tape you see it . done ! ! ! !,0.8534698,1,1
486381,"yes , and all psychologists are freudians , all economists are neoclassical , etc .",but all sociologists are stupid sjws who dont know anything about the real world and should have gotten a stem degree ! ! ! !,0.98085976,1,1
874193,i thought this was reddit where everyone lpts everything and we all shave with straightrazors and have all of life figured out,"also , chewed up nails and bad breath . .",0.77645624,1,1
183247,"how dare you lump a stronk , independent woman's money with shitlord's money ?",same . a woman can just as easily open a vanguard or schwab account and start investing as a man . this is a bullshit company .,0.7099341,1,1
882197,well how else would they choose not to be gay anymore ?,they just want the world to be a place in which gay people feel shame and are not accepted as good people with good and natural desires .,0.875602,1,1
16746,well they are kinda important,why anyone still uses a mouse is beyond me .,0.76719934,1,1
994742,apparently a healthy team just is not desirable for a good performance .,may you explain how the bulls will do worse ?,0.747508,1,1
92060,"they should add every asset from all ""skyrim games"" with new graphics and models in the remaster so modders can use them !",people are asking if they could add all of fallout 4s assets into it too . you just cannot please some people .,0.9044661,1,1
875093,"yeah , shame on him for having opinions !",get out .,0.95080775,1,1
206805,"yeah , that is why he slept with them... ","was not there a bit about that in the movie ""love actually"" when the guys come to america and end up with january jones and her sisters place for that reason .",0.9577786,1,1
920895,you forgot to put,that is only because wall street knows obama will be defeated in november . duh .,0.99961424,1,1
312927,no he cannot be racist because racism  prejudicepower .,he is saying derogatory things about women of a specific race . how is that not racist ? it does not matter if he is also that race . black people can be racist to black people .,0.99255365,1,1
216505,gotta protect that meth and dope somehow,"if you live in kentucky as your username would suggest , they probably do have theirs . we have the highest  of cc of any state . i feel like i'm the only one who does not . also most guns per person .",0.9273611,1,1
159309,they are doing burning man wrong *hate hate hate hate hate*,burning man hate week,0.80671173,1,1
83789,"sorry , this was an isolated incident by a mentally unstable individual .",deplorable trumptart terrorists are so cowardly that they attack women ? sad .,0.9365824,1,1
759807,no no... its a different video because the video is mirrored (as in left and right are switched) .,i wonder what the next title of this video will be when it is reposted again .,0.71057457,1,1
879111,"oh come on now , it is only been eight hours  that is not so bad , right ?",emergency maintenance or another migration cover up ?,0.897709,1,1
504869,colts fans do not deserve luck,that is fine luck has plenty of picks to spare this year .,0.89890206,1,1
205177,you forgot this :,"yeah , let us not start these two .",0.9954145,1,1
63735,making people stand while holding popcorn and pepsi will definitely make them patriotic .,"sc orders national anthem should be played in all cinema halls across the country before movie starts ,accompanied by national flag on screen",0.7356176,1,1
668321,that is racist,perez may be annoying but alexander has shown a real dark side tonight .,0.81085366,1,1
19286,proof of global cooling,"for the first time in 37 years , it has snowed in the sahara",0.79835,1,1
